﻿{
  "id": "401110870",
  "uid": "s:20~l:23~e:401110870",
  "date": "2019-11-30T17:00Z",
  "name": "Clemson Tigers at South Carolina Gamecocks",
  "shortName": "CLEM @ SC",
  "season": {
    "year": 2019,
    "type": 2
  },
  "competitions": [
    {
      "id": "401110870",
      "uid": "s:20~l:23~e:401110870~c:401110870",
      "date": "2019-11-30T17:00Z",
      "attendance": 0,
      "type": {
        "id": "1",
        "abbreviation": "STD"
      },
      "timeValid": false,
      "neutralSite": false,
      "conferenceCompetition": false,
      "recent": false,
      "venue": {
        "id": "3994",
        "fullName": "Williams-Brice Stadium",
        "address": {
          "city": "Columbia",
          "state": "SC"
        },
        "capacity": 80250,
        "indoor": false
      },
      "competitors": [
        {
          "id": "2579",
          "uid": "s:20~l:23~t:2579",
          "type": "team",
          "order": 0,
          "homeAway": "home",
          "winner": false,
          "team": {
            "id": "2579",
            "uid": "s:20~l:23~t:2579",
            "location": "South Carolina",
            "name": "Gamecocks",
            "abbreviation": "SC",
            "displayName": "South Carolina Gamecocks",
            "shortDisplayName": "Gamecocks",
            "color": "670010",
            "alternateColor": "000000",
            "isActive": true,
            "venue": {
              "id": "3994"
            },
            "links": [
              {
                "rel": [
                  "clubhouse",
                  "desktop",
                  "team"
                ],
                "href": "http://www.espn.com/college-football/team/_/id/2579/south-carolina-gamecocks",
                "text": "Clubhouse",
                "isExternal": false,
                "isPremium": false
              },
              {
                "rel": [
                  "clubhouse",
                  "mobile",
                  "team"
                ],
                "href": "http://www.espn.com/college-football/team/_/id/2579/south-carolina-gamecocks",
                "text": "Clubhouse",
                "isExternal": false,
                "isPremium": false
              },
              {
                "rel": [
                  "roster",
                  "desktop",
                  "team"
                ],
                "href": "http://www.espn.com/college-football/team/roster/_/id/2579",
                "text": "Roster",
                "isExternal": false,
                "isPremium": false
              },
              {
                "rel": [
                  "stats",
                  "desktop",
                  "team"
                ],
                "href": "http://www.espn.com/college-football/team/stats/_/id/2579",
                "text": "Statistics",
                "isExternal": false,
                "isPremium": false
              },
              {
                "rel": [
                  "schedule",
                  "desktop",
                  "team"
                ],
                "href": "http://www.espn.com/college-football/team/schedule/_/id/2579",
                "text": "Schedule",
                "isExternal": false,
                "isPremium": false
              },
              {
                "rel": [
                  "photos",
                  "desktop",
                  "team"
                ],
                "href": "http://www.espn.com/college-football/team/photos/_/id/2579",
                "text": "photos",
                "isExternal": false,
                "isPremium": false
              },
              {
                "rel": [
                  "stadium",
                  "desktop",
                  "team"
                ],
                "href": "http://www.espn.com/college-football/team/stadium/_/id/2579",
                "text": "Stadium",
                "isExternal": false,
                "isPremium": false
              },
              {
                "rel": [
                  "scores",
                  "sportscenter",
                  "app",
                  "team"
                ],
                "href": "sportscenter://x-callback-url/showClubhouse?uid=s:20~l:23~t:2579&section=scores",
                "text": "Scores",
                "isExternal": false,
                "isPremium": false
              },
              {
                "rel": [
                  "awards",
                  "desktop",
                  "team"
                ],
                "href": "http://www.espn.com/college-football/awards/_/team/2579",
                "text": "Awards",
                "isExternal": false,
                "isPremium": false
              }
            ],
            "logo": "https://a.espncdn.com/i/teamlogos/ncaa/500/2579.png",
            "conferenceId": "8"
          },
          "score": "0",
          "linescores": [
            {
              "value": 0
            },
            {
              "value": 0
            },
            {
              "value": 0
            },
            {
              "value": 0
            }
          ],
          "statistics": [],
          "curatedRank": {
            "current": 99
          },
          "records": [
            {
              "name": "YTD",
              "abbreviation": "Game",
              "type": "total",
              "summary": "4-8"
            },
            {
              "name": "Home",
              "type": "home",
              "summary": "3-4"
            },
            {
              "name": "Road",
              "type": "road",
              "summary": "1-3"
            },
            {
              "name": "vs. Conf.",
              "type": "vsconf",
              "summary": "3-5"
            }
          ]
        },
        {
          "id": "228",
          "uid": "s:20~l:23~t:228",
          "type": "team",
          "order": 1,
          "homeAway": "away",
          "winner": false,
          "team": {
            "id": "228",
            "uid": "s:20~l:23~t:228",
            "location": "Clemson",
            "name": "Tigers",
            "abbreviation": "CLEM",
            "displayName": "Clemson Tigers",
            "shortDisplayName": "Tigers",
            "color": "F66733",
            "alternateColor": "522d80",
            "isActive": true,
            "venue": {
              "id": "3836"
            },
            "links": [
              {
                "rel": [
                  "clubhouse",
                  "desktop",
                  "team"
                ],
                "href": "http://www.espn.com/college-football/team/_/id/228/clemson-tigers",
                "text": "Clubhouse",
                "isExternal": false,
                "isPremium": false
              },
              {
                "rel": [
                  "clubhouse",
                  "mobile",
                  "team"
                ],
                "href": "http://www.espn.com/college-football/team/_/id/228/clemson-tigers",
                "text": "Clubhouse",
                "isExternal": false,
                "isPremium": false
              },
              {
                "rel": [
                  "roster",
                  "desktop",
                  "team"
                ],
                "href": "http://www.espn.com/college-football/team/roster/_/id/228",
                "text": "Roster",
                "isExternal": false,
                "isPremium": false
              },
              {
                "rel": [
                  "stats",
                  "desktop",
                  "team"
                ],
                "href": "http://www.espn.com/college-football/team/stats/_/id/228",
                "text": "Statistics",
                "isExternal": false,
                "isPremium": false
              },
              {
                "rel": [
                  "schedule",
                  "desktop",
                  "team"
                ],
                "href": "http://www.espn.com/college-football/team/schedule/_/id/228",
                "text": "Schedule",
                "isExternal": false,
                "isPremium": false
              },
              {
                "rel": [
                  "photos",
                  "desktop",
                  "team"
                ],
                "href": "http://www.espn.com/college-football/team/photos/_/id/228",
                "text": "photos",
                "isExternal": false,
                "isPremium": false
              },
              {
                "rel": [
                  "stadium",
                  "desktop",
                  "team"
                ],
                "href": "http://www.espn.com/college-football/team/stadium/_/id/228",
                "text": "Stadium",
                "isExternal": false,
                "isPremium": false
              },
              {
                "rel": [
                  "scores",
                  "sportscenter",
                  "app",
                  "team"
                ],
                "href": "sportscenter://x-callback-url/showClubhouse?uid=s:20~l:23~t:228&section=scores",
                "text": "Scores",
                "isExternal": false,
                "isPremium": false
              },
              {
                "rel": [
                  "awards",
                  "desktop",
                  "team"
                ],
                "href": "http://www.espn.com/college-football/awards/_/team/228",
                "text": "Awards",
                "isExternal": false,
                "isPremium": false
              }
            ],
            "logo": "https://a.espncdn.com/i/teamlogos/ncaa/500/228.png",
            "conferenceId": "1"
          },
          "score": "0",
          "linescores": [
            {
              "value": 0
            },
            {
              "value": 0
            },
            {
              "value": 0
            },
            {
              "value": 0
            }
          ],
          "statistics": [],
          "curatedRank": {
            "current": 3
          },
          "records": [
            {
              "name": "YTD",
              "abbreviation": "Game",
              "type": "total",
              "summary": "12-0"
            },
            {
              "name": "Home",
              "type": "home",
              "summary": "7-0"
            },
            {
              "name": "Road",
              "type": "road",
              "summary": "5-0"
            },
            {
              "name": "vs. Conf.",
              "type": "vsconf",
              "summary": "8-0"
            }
          ]
        }
      ],
      "notes": [],
      "status": {
        "clock": 0,
        "displayClock": "0:00",
        "period": 0,
        "type": {
          "id": "1",
          "name": "STATUS_SCHEDULED",
          "state": "pre",
          "completed": false,
          "description": "Scheduled",
          "detail": "TBD",
          "shortDetail": "TBD"
        }
      },
      "broadcasts": [
        {
          "market": "national",
          "names": [
            "ESPN"
          ]
        }
      ],
      "leaders": [
        {
          "name": "passingYards",
          "displayName": "Passing Leader",
          "shortDisplayName": "PASS",
          "abbreviation": "PYDS",
          "leaders": [
            {
              "displayValue": "26-36, 295 YDS, 3 TD",
              "value": 295,
              "athlete": {
                "id": "4360310",
                "fullName": "Trevor Lawrence",
                "displayName": "Trevor Lawrence",
                "shortName": "T. Lawrence",
                "links": [
                  {
                    "rel": [
                      "playercard",
                      "desktop",
                      "athlete"
                    ],
                    "href": "http://www.espn.com/college-football/player/_/id/4360310/trevor-lawrence"
                  },
                  {
                    "rel": [
                      "stats",
                      "desktop",
                      "athlete"
                    ],
                    "href": "http://www.espn.com/college-football/player/stats/_/id/4360310/trevor-lawrence"
                  },
                  {
                    "rel": [
                      "splits",
                      "desktop",
                      "athlete"
                    ],
                    "href": "http://www.espn.com/college-football/player/splits/_/id/4360310/trevor-lawrence"
                  },
                  {
                    "rel": [
                      "gamelog",
                      "desktop",
                      "athlete"
                    ],
                    "href": "http://www.espn.com/college-football/player/gamelog/_/id/4360310/trevor-lawrence"
                  },
                  {
                    "rel": [
                      "news",
                      "desktop",
                      "athlete"
                    ],
                    "href": "http://www.espn.com/college-football/player/news/_/id/4360310/trevor-lawrence"
                  },
                  {
                    "rel": [
                      "bio",
                      "desktop",
                      "athlete"
                    ],
                    "href": "http://www.espn.com/college-football/player/bio/_/id/4360310/trevor-lawrence"
                  },
                  {
                    "rel": [
                      "overview",
                      "desktop",
                      "athlete"
                    ],
                    "href": "http://www.espn.com/college-football/player/_/id/4360310/trevor-lawrence"
                  }
                ],
                "headshot": "https://a.espncdn.com/i/headshots/college-football/players/full/4360310.png",
                "jersey": "16",
                "position": {
                  "abbreviation": "QB"
                },
                "team": {
                  "id": "228"
                },
                "active": true
              },
              "team": {
                "id": "228"
              }
            }
          ]
        },
        {
          "name": "rushingYards",
          "displayName": "Rushing Leader",
          "shortDisplayName": "RUSH",
          "abbreviation": "RYDS",
          "leaders": [
            {
              "displayValue": "8 CAR, 66 YDS",
              "value": 66,
              "athlete": {
                "id": "4360310",
                "fullName": "Trevor Lawrence",
                "displayName": "Trevor Lawrence",
                "shortName": "T. Lawrence",
                "links": [
                  {
                    "rel": [
                      "playercard",
                      "desktop",
                      "athlete"
                    ],
                    "href": "http://www.espn.com/college-football/player/_/id/4360310/trevor-lawrence"
                  },
                  {
                    "rel": [
                      "stats",
                      "desktop",
                      "athlete"
                    ],
                    "href": "http://www.espn.com/college-football/player/stats/_/id/4360310/trevor-lawrence"
                  },
                  {
                    "rel": [
                      "splits",
                      "desktop",
                      "athlete"
                    ],
                    "href": "http://www.espn.com/college-football/player/splits/_/id/4360310/trevor-lawrence"
                  },
                  {
                    "rel": [
                      "gamelog",
                      "desktop",
                      "athlete"
                    ],
                    "href": "http://www.espn.com/college-football/player/gamelog/_/id/4360310/trevor-lawrence"
                  },
                  {
                    "rel": [
                      "news",
                      "desktop",
                      "athlete"
                    ],
                    "href": "http://www.espn.com/college-football/player/news/_/id/4360310/trevor-lawrence"
                  },
                  {
                    "rel": [
                      "bio",
                      "desktop",
                      "athlete"
                    ],
                    "href": "http://www.espn.com/college-football/player/bio/_/id/4360310/trevor-lawrence"
                  },
                  {
                    "rel": [
                      "overview",
                      "desktop",
                      "athlete"
                    ],
                    "href": "http://www.espn.com/college-football/player/_/id/4360310/trevor-lawrence"
                  }
                ],
                "headshot": "https://a.espncdn.com/i/headshots/college-football/players/full/4360310.png",
                "jersey": "16",
                "position": {
                  "abbreviation": "QB"
                },
                "team": {
                  "id": "228"
                },
                "active": true
              },
              "team": {
                "id": "228"
              }
            }
          ]
        },
        {
          "name": "receivingYards",
          "displayName": "Receiving Leader",
          "shortDisplayName": "REC",
          "abbreviation": "RECYDS",
          "leaders": [
            {
              "displayValue": "9 REC, 111 YDS, 1 TD",
              "value": 111,
              "athlete": {
                "id": "4360306",
                "fullName": "Justyn Ross",
                "displayName": "Justyn Ross",
                "shortName": "J. Ross",
                "links": [
                  {
                    "rel": [
                      "playercard",
                      "desktop",
                      "athlete"
                    ],
                    "href": "http://www.espn.com/college-football/player/_/id/4360306/justyn-ross"
                  },
                  {
                    "rel": [
                      "stats",
                      "desktop",
                      "athlete"
                    ],
                    "href": "http://www.espn.com/college-football/player/stats/_/id/4360306/justyn-ross"
                  },
                  {
                    "rel": [
                      "splits",
                      "desktop",
                      "athlete"
                    ],
                    "href": "http://www.espn.com/college-football/player/splits/_/id/4360306/justyn-ross"
                  },
                  {
                    "rel": [
                      "gamelog",
                      "desktop",
                      "athlete"
                    ],
                    "href": "http://www.espn.com/college-football/player/gamelog/_/id/4360306/justyn-ross"
                  },
                  {
                    "rel": [
                      "news",
                      "desktop",
                      "athlete"
                    ],
                    "href": "http://www.espn.com/college-football/player/news/_/id/4360306/justyn-ross"
                  },
                  {
                    "rel": [
                      "bio",
                      "desktop",
                      "athlete"
                    ],
                    "href": "http://www.espn.com/college-football/player/bio/_/id/4360306/justyn-ross"
                  },
                  {
                    "rel": [
                      "overview",
                      "desktop",
                      "athlete"
                    ],
                    "href": "http://www.espn.com/college-football/player/_/id/4360306/justyn-ross"
                  }
                ],
                "headshot": "https://a.espncdn.com/i/headshots/college-football/players/full/4360306.png",
                "jersey": "8",
                "position": {
                  "abbreviation": "WR"
                },
                "team": {
                  "id": "228"
                },
                "active": true
              },
              "team": {
                "id": "228"
              }
            }
          ]
        }
      ],
      "startDate": "2019-11-30T17:00Z",
      "geoBroadcasts": [
        {
          "type": {
            "id": "1",
            "shortName": "TV"
          },
          "market": {
            "id": "1",
            "type": "National"
          },
          "media": {
            "shortName": "ESPN"
          },
          "lang": "en",
          "region": "us"
        },
        {
          "type": {
            "id": "5",
            "shortName": "Radio"
          },
          "market": {
            "id": "1",
            "type": "National"
          },
          "media": {
            "shortName": "ESPNRM"
          },
          "lang": "en",
          "region": "us"
        }
      ],
      "headlines": [
        {
          "description": "Pregame headline here.",
          "type": "Recap",
          "shortLinkText": "Lawrence, No. 3 Clemson dominate South Carolina 38-3",
          "video": [
            {
              "id": 28195761,
              "source": "espn",
              "headline": "Lawrence notches 3 TD passes as Clemson routs South Carolina",
              "thumbnail": "https://a.espncdn.com/media/motion/2019/1130/dm_191130_NCF_Sotfull_Trevor_Lawrence_vs_South_Carolina/dm_191130_NCF_Sotfull_Trevor_Lawrence_vs_South_Carolina.jpg",
              "duration": 96,
              "tracking": {
                "sportName": "ncf",
                "leagueName": "No League",
                "coverageType": "Final Game Highlight",
                "trackingName": "COM_NCF Highlight (Lawrence notches 3 TD passes as Clemson routs South Carolina) 2019/11/30 ESHEET SOTFULL",
                "trackingId": "dm_191130_NCF_Sotfull_Trevor_Lawrence_vs_South_Carolina"
              },
              "deviceRestrictions": {
                "type": "whitelist",
                "devices": [
                  "desktop",
                  "settop",
                  "handset",
                  "tablet"
                ]
              },
              "links": {
                "api": {
                  "self": {
                    "href": "http://api.espn.com/v1/video/clips/28195761"
                  },
                  "artwork": {
                    "href": "https://artwork.api.espn.com/artwork/collections/media/3705d915-cca9-4b90-8237-747779f8e67a"
                  }
                },
                "web": {
                  "href": "http://espn.go.com/video/clip?id=28195761&ex_cid=espnapi_internal",
                  "short": {
                    "href": "https://es.pn/33CitHC"
                  },
                  "self": {
                    "href": "http://espn.go.com/video/clip?id=28195761&ex_cid=espnapi_internal"
                  }
                },
                "source": {
                  "mezzanine": {
                    "href": "https://media.video-origin.espn.com/espnvideo/2019/1130/dm_191130_NCF_Sotfull_Trevor_Lawrence_vs_South_Carolina/dm_191130_NCF_Sotfull_Trevor_Lawrence_vs_South_Carolina.mp4"
                  },
                  "flash": {
                    "href": "https://media.video-cdn.espn.com/motion/2019/1130/dm_191130_NCF_Sotfull_Trevor_Lawrence_vs_South_Carolina/dm_191130_NCF_Sotfull_Trevor_Lawrence_vs_South_Carolina.smil"
                  },
                  "hds": {
                    "href": "https://hds.video-cdn.espn.com/z/motion/2019/1130/dm_191130_NCF_Sotfull_Trevor_Lawrence_vs_South_Carolina/dm_191130_NCF_Sotfull_Trevor_Lawrence_vs_South_Carolina_rel.smil/manifest.f4m"
                  },
                  "HLS": {
                    "href": "https://espnpackaging-vh.akamaihd.net/i/motion/2019/1130/dm_191130_NCF_Sotfull_Trevor_Lawrence_vs_South_Carolina/dm_191130_NCF_Sotfull_Trevor_Lawrence_vs_South_Carolina.smil/master.m3u8",
                    "HD": {
                      "href": "https://espnpackaging-vh.akamaihd.net/i/motion/2019/1130/dm_191130_NCF_Sotfull_Trevor_Lawrence_vs_South_Carolina/dm_191130_NCF_Sotfull_Trevor_Lawrence_vs_South_Carolina.smil/master.m3u8"
                    }
                  },
                  "HD": {
                    "href": "https://media.video-cdn.espn.com/motion/2019/1130/dm_191130_NCF_Sotfull_Trevor_Lawrence_vs_South_Carolina/dm_191130_NCF_Sotfull_Trevor_Lawrence_vs_South_Carolina_720p30_2896k.mp4"
                  },
                  "full": {
                    "href": "https://media.video-cdn.espn.com/motion/2019/1130/dm_191130_NCF_Sotfull_Trevor_Lawrence_vs_South_Carolina/dm_191130_NCF_Sotfull_Trevor_Lawrence_vs_South_Carolina_360p30_1464k.mp4"
                  },
                  "href": "https://media.video-cdn.espn.com/motion/2019/1130/dm_191130_NCF_Sotfull_Trevor_Lawrence_vs_South_Carolina/dm_191130_NCF_Sotfull_Trevor_Lawrence_vs_South_Carolina_360p30_1464k.mp4"
                },
                "mobile": {
                  "alert": {
                    "href": "http://m.espn.go.com/general/video/videoAlert?vid=28195761&ex_cid=espnapi_internal"
                  },
                  "source": {
                    "href": "https://media.video-cdn.espn.com/motion/2019/1130/dm_191130_NCF_Sotfull_Trevor_Lawrence_vs_South_Carolina/dm_191130_NCF_Sotfull_Trevor_Lawrence_vs_South_Carolina.mp4"
                  },
                  "href": "https://watch.auth.api.espn.com/video/auth/brightcove/3705d915-cca9-4b90-8237-747779f8e67a/asset?UMADPARAMreferer=http://espn.go.com/video/clip?id=28195761&ex_cid=espnapi_internal",
                  "streaming": {
                    "href": "https://watch.auth.api.espn.com/video/auth/brightcove/3705d915-cca9-4b90-8237-747779f8e67a/asset?UMADPARAMreferer=http://espn.go.com/video/clip?id=28195761&ex_cid=espnapi_internal"
                  },
                  "progressiveDownload": {
                    "href": "https://watch.auth.api.espn.com/video/auth/brightcove/3705d915-cca9-4b90-8237-747779f8e67a/asset?UMADPARAMreferer=http://espn.go.com/video/clip?id=28195761&ex_cid=espnapi_internal"
                  }
                }
              }
            }
          ]
        }
      ]
    }
  ],
  "links": [
    {
      "language": "en-US",
      "rel": [
        "summary",
        "desktop",
        "event"
      ],
      "href": "http://www.espn.com/college-football/game/_/gameId/401110870",
      "text": "Gamecast",
      "shortText": "Gamecast",
      "isExternal": false,
      "isPremium": false
    },
    {
      "language": "en-US",
      "rel": [
        "boxscore",
        "desktop",
        "event"
      ],
      "href": "http://www.espn.com/college-football/boxscore?gameId=401110870",
      "text": "Box Score",
      "shortText": "Box Score",
      "isExternal": false,
      "isPremium": false
    },
    {
      "language": "en-US",
      "rel": [
        "highlights",
        "desktop"
      ],
      "href": "http://www.espn.com/college-football/video?gameId=401110870",
      "text": "Highlights",
      "shortText": "Highlights",
      "isExternal": false,
      "isPremium": false
    },
    {
      "language": "en-US",
      "rel": [
        "pbp",
        "desktop",
        "event"
      ],
      "href": "http://www.espn.com/college-football/playbyplay?gameId=401110870",
      "text": "Play-by-Play",
      "shortText": "Play-by-Play",
      "isExternal": false,
      "isPremium": false
    },
    {
      "language": "en-US",
      "rel": [
        "recap",
        "desktop",
        "event"
      ],
      "href": "http://www.espn.com/college-football/recap?gameId=401110870",
      "text": "Recap",
      "shortText": "Recap",
      "isExternal": false,
      "isPremium": false
    }
  ],
  "status": {
    "clock": 0,
    "displayClock": "0:00",
    "period": 0,
    "type": {
      "id": "3",
      "name": "STATUS_SCHEDULED",
      "state": "pre",
      "completed": false,
      "description": "Scheduled",
      "detail": "TBD",
      "shortDetail": "TBD"
    }
  }
}